<?xml version="1.0" encoding="UTF-8" standalone="no"?>
<!-- Created with Inkscape (http://www.inkscape.org/) -->

<svg
   version="1.1"
   id="svg884"
   width="105.6"
   height="105.6"
   viewBox="0 0 105.6 105.6"
   sodipodi:docname="datlinux_logo.svg"
   inkscape:version="1.1.2 (0a00cf5339, 2022-02-04)"
   xmlns:inkscape="http://www.inkscape.org/namespaces/inkscape"
   xmlns:sodipodi="http://sodipodi.sourceforge.net/DTD/sodipodi-0.dtd"
   xmlns="http://www.w3.org/2000/svg"
   xmlns:svg="http://www.w3.org/2000/svg">
  <defs
     id="defs888" />
  <sodipodi:namedview
     id="namedview886"
     pagecolor="#ffffff"
     bordercolor="#666666"
     borderopacity="1.0"
     inkscape:pageshadow="2"
     inkscape:pageopacity="0.0"
     inkscape:pagecheckerboard="0"
     showgrid="false"
     inkscape:zoom="6.302028"
     inkscape:cx="41.41524"
     inkscape:cy="52.760794"
     inkscape:window-width="1920"
     inkscape:window-height="972"
     inkscape:window-x="1600"
     inkscape:window-y="27"
     inkscape:window-maximized="1"
     inkscape:current-layer="g890" />
  <g
     inkscape:groupmode="layer"
     inkscape:label="Image"
     id="g890">
    <g
       id="g1368"
       transform="translate(0.36640003,-0.86596734)">
      <path
         style="fill:#9edfdb;stroke-width:0.32"
         d="m 49.066384,102.78727 c -6.849968,-2.44842 -8.957808,-10.655187 -4.113814,-16.016908 3.751177,-4.152106 10.663683,-4.152106 14.41486,0 1.846333,2.04367 2.539332,3.863849 2.539332,6.669638 0,2.805789 -0.692999,4.625968 -2.539332,6.66964 -2.494297,2.76089 -6.879248,3.9007 -10.301046,2.67763 z M 28.96,98.173904 c -5.127077,-1.792182 -5.892562,-8.60768 -1.270973,-11.316112 3.53549,-2.071936 8.070403,-0.137706 9.080291,3.872925 0.793735,3.152214 -0.915577,6.215411 -4.094086,7.336851 C 31.085069,98.628611 30.32321,98.650416 28.96,98.173904 Z M 71.52953,98.049805 C 67.409008,96.54135 66.043997,91.604685 68.817165,88.240349 72.443274,83.841251 79.68,86.426416 79.68,92.120864 c 0,2.857456 -1.676304,5.147027 -4.44775,6.074944 -1.381015,0.462381 -2.120506,0.433222 -3.70272,-0.146003 z M 16.131311,83.797046 C 12.695041,83.02399 9.8212224,80.20024 8.7617894,76.55592 7.5317219,72.324637 9.7281866,67.529651 13.899694,65.339632 15.281482,64.614198 15.920398,64.488317 18.24,64.48449 c 2.191064,-0.0036 3.007946,0.137376 4.200731,0.725046 8.347773,4.112835 7.149902,16.125677 -1.841518,18.467642 -2.054349,0.535091 -2.561713,0.548704 -4.467902,0.119868 z M 83.5796,83.675747 c -7.732496,-2.151273 -9.896528,-11.503222 -3.907776,-16.887625 3.797875,-3.414618 9.160717,-3.294413 13.133066,0.294364 2.974406,2.6872 3.911152,7.361668 2.203856,10.997514 -1.18282,2.518925 -2.293485,3.686074 -4.548503,4.779827 -2.444675,1.185744 -4.622925,1.444045 -6.880643,0.81592 z M 38.88,81.940778 c -1.547843,-0.37682 -2.874371,-1.187648 -3.953181,-2.416343 -1.417337,-1.614259 -1.968,-3.132883 -1.959344,-5.403513 0.01389,-3.646458 2.599719,-6.806756 6.177082,-7.549412 5.227331,-1.08519 9.94719,3.199005 9.397021,8.529636 -0.487856,4.726896 -5.05608,7.960835 -9.661578,6.839632 z M 61.190973,81.787469 C 54.708182,79.678931 53.785565,70.643546 59.72864,67.466538 c 2.029171,-1.084743 3.49072,-1.31857 5.52065,-0.883229 3.520054,0.754915 6.089475,3.928201 6.103235,7.537613 0.0087,2.271593 -0.542019,3.78927 -1.961546,5.406019 -1.957581,2.229561 -5.38783,3.175193 -8.200006,2.260528 z m -12.411895,-19.9924 c -3.293846,-1.496061 -5.263827,-4.503479 -5.252051,-8.017898 0.03165,-9.444374 12.744647,-12.036153 16.668042,-3.398093 0.790528,1.740496 0.790528,5.021348 0,6.761844 -1.496061,3.293846 -4.503479,5.263827 -8.017898,5.252051 -1.342768,-0.0045 -2.565145,-0.219581 -3.398093,-0.597904 z M 27.52,61.268294 C 24.263124,60.257014 22.088943,57.184835 22.083126,53.585843 22.0773,49.98129 24.777558,46.801757 28.505559,46.023482 33.147453,45.054416 37.76,48.91041 37.76,53.76 c 0,3.409165 -2.169075,6.343075 -5.531184,7.481523 -1.825535,0.618147 -2.78666,0.623613 -4.708816,0.02678 z m 44.395862,-0.0816 C 69.780186,60.420649 68.370291,59.187126 67.39623,57.232441 65.233654,52.892713 67.38564,47.87183 72.091184,46.27848 c 1.887018,-0.638967 2.565088,-0.646039 4.570736,-0.04767 2.106778,0.62854 3.894989,2.168092 4.816234,4.146515 2.043516,4.388553 -0.232068,9.544214 -4.816234,10.911865 -1.997984,0.596084 -2.849741,0.57769 -4.746058,-0.102499 z M 8.489529,59.664176 C 6.8656419,59.051331 5.5180534,57.782899 4.7666762,56.16 3.264039,52.914458 5.0358861,49.112064 8.644535,47.838096 12.449547,46.494806 16.64,49.625072 16.64,53.810701 c 0,4.083677 -4.423027,7.260189 -8.150471,5.853475 z m 83.633693,0.05435 c -3.83126,-1.369143 -5.478953,-5.216919 -3.757107,-8.773783 0.780058,-1.611385 2.827421,-3.09943 4.698829,-3.415158 2.428886,-0.409786 5.313722,1.293277 6.488381,3.830419 1.494985,3.229024 -0.269626,7.048541 -3.838093,8.307568 -1.66337,0.586874 -2.075974,0.592726 -3.59201,0.05095 z M 15.68,42.900758 C 10.488698,41.315914 7.3345235,35.873702 8.7617894,30.964081 c 1.1160624,-3.839119 3.9682136,-6.505585 7.8121966,-7.303592 3.377474,-0.701161 7.55898,1.001619 9.692596,3.946989 C 30.94037,34.059456 26.089056,43.307942 18.10192,43.172496 17.209864,43.157366 16.12,43.035085 15.68,42.900758 Z m 67.2,-0.209075 c -7.617046,-2.732441 -9.035619,-12.846256 -2.438467,-17.385217 4.932329,-3.393532 11.444867,-1.774401 14.283321,3.551082 0.936509,1.757071 1.070532,2.306226 1.077396,4.414574 0.0127,3.904646 -1.942138,7.131049 -5.381943,8.882704 -2.072393,1.055324 -5.428841,1.2943 -7.540307,0.536857 z M 38.628314,40.837069 c -3.313216,-0.917306 -5.647674,-3.98464 -5.660839,-7.437991 -0.0087,-2.271595 0.542019,-3.78927 1.961546,-5.406018 4.450045,-5.068321 12.917622,-2.307497 13.613897,4.438764 0.332391,3.220557 -1.170131,6.126342 -3.944438,7.628314 -1.957107,1.059552 -3.992611,1.324441 -5.970166,0.776931 z m 23.23792,0.147869 c -5.163712,-1.290586 -7.718679,-7.207751 -5.0664,-11.73352 3.263014,-5.567916 11.576515,-4.954139 14.080848,1.039574 1.554425,3.720262 -0.459485,8.660816 -4.160682,10.207046 -1.333606,0.557136 -3.64503,0.789002 -4.853766,0.4869 z M 49.495146,23.560531 C 42.460317,21.583236 40.012048,12.878928 44.95257,7.4103606 c 3.760521,-4.1624444 10.654339,-4.1624444 14.41486,0 1.846333,2.0436714 2.539332,3.8638514 2.539332,6.6696394 0,2.805788 -0.692999,4.625968 -2.539332,6.669639 -2.325753,2.574329 -6.492761,3.760783 -9.872284,2.810892 z M 29.733294,21.435625 C 26.814584,20.932796 24.64,18.355516 24.64,15.399137 c 0,-3.02531 1.822315,-5.353523 4.805795,-6.1399453 1.854751,-0.4888983 3.738858,-0.00432 5.294752,1.3617753 1.526061,1.339898 2.14545,2.644814 2.173405,4.57888 0.05592,3.868261 -3.416986,6.884174 -7.180658,6.235778 z m 42.605212,-0.05098 c -2.825722,-0.501469 -4.975591,-3.200879 -4.93234,-6.193124 0.02669,-1.847224 0.413348,-2.750583 1.808048,-4.224342 C 72.983395,6.9843459 79.68,9.8201658 79.68,15.399137 c 0,3.881405 -3.431798,6.679345 -7.341494,5.985507 z"
         id="path1372" />
      <path
         style="fill:#0abfb7;stroke-width:0.32"
         d="M 49.184858,102.27789 C 46.191485,101.16225 43.9476,98.767786 43.156429,95.844922 42.24857,92.490957 43.652477,88.265517 46.362106,86.19656 50.986752,82.665379 57.552061,83.990214 60.336333,89.016464 61.1736,90.52792 61.28,91.026688 61.28,93.44 c 0,2.414339 -0.106224,2.911766 -0.945264,4.42647 -1.677558,3.02847 -4.173456,4.56904 -7.694736,4.74951 -1.415869,0.0726 -2.687069,-0.0518 -3.455142,-0.33809 z m -20.94798,-5.033128 c -1.593823,-0.788928 -2.430082,-1.848391 -2.932898,-3.715706 -0.92375,-3.430547 1.814483,-6.937843 5.409082,-6.928285 6.056474,0.0161 7.919114,8.22032 2.43209,10.712403 -1.716898,0.779776 -3.237551,0.75858 -4.908274,-0.06841 z m 42.93797,0.08739 c -5.4772,-2.567245 -3.630589,-10.715254 2.43209,-10.731376 4.134316,-0.01101 6.79271,4.398167 4.960742,8.227786 -1.211808,2.533206 -4.763504,3.735993 -7.392832,2.50359 z M 15.84,83.091542 C 12.568266,82.007837 10.378202,79.898208 9.4450445,76.931459 7.9332339,72.125021 10.840235,66.590253 15.572394,65.265331 c 2.15441,-0.603197 5.525899,-0.2464 7.256795,0.767975 3.226619,1.890924 4.887891,5.059561 4.618693,8.8095 -0.336097,4.681856 -3.739572,8.120778 -8.425602,8.513351 -1.152106,0.09652 -2.407055,-0.0078 -3.18228,-0.264615 z m 67.9096,0.09752 c -1.771757,-0.44409 -2.933008,-1.119293 -4.247309,-2.469572 -1.693421,-1.739776 -2.455417,-3.442329 -2.630173,-5.876688 -0.284736,-3.966396 1.659824,-7.360918 5.2124,-9.099033 1.534861,-0.750938 2.037165,-0.837235 4.228621,-0.726503 2.932189,0.148164 4.476496,0.799815 6.365091,2.685882 3.402919,3.398365 3.530093,8.936336 0.288023,12.542301 -2.276589,2.532115 -6.050122,3.737305 -9.216653,2.943613 z M 37.473523,80.756771 c -5.023059,-2.503094 -5.442601,-9.641097 -0.741878,-12.622208 2.772739,-1.758419 6.253085,-1.521945 8.7236,0.592727 1.714691,1.467708 2.530701,3.245248 2.530701,5.51271 0,5.515859 -5.579767,8.974819 -10.512423,6.516771 z m 23.526403,0.392611 C 58.252848,80.127002 56.334054,77.285587 56.334054,74.24 c 0,-2.267462 0.81601,-4.045002 2.530701,-5.51271 2.470515,-2.114672 5.950861,-2.351146 8.7236,-0.592727 4.482915,2.842983 4.360739,9.672967 -0.221065,12.358083 -1.782263,1.044477 -4.556653,1.330628 -6.367364,0.656736 z M 50.527149,61.788013 C 48.641264,61.408602 46.432218,59.913027 45.434934,58.340474 40.713805,50.896026 48.844957,42.38865 56.43177,46.834816 c 2.489465,1.458925 3.822348,3.882627 3.822348,6.950528 0,4.282294 -2.909654,7.500986 -7.294118,8.068829 -0.704,0.09117 -1.798784,0.0614 -2.432851,-0.06616 z M 27.472706,60.674906 c -4.591105,-1.640119 -6.307626,-6.975434 -3.573451,-11.10705 2.413337,-3.6468 8.025114,-4.155683 11.046534,-1.001718 1.662342,1.735264 2.174211,2.957302 2.174211,5.19072 0,5.064019 -4.933667,8.601939 -9.647294,6.918048 z m 44.373425,-0.0468 c -1.542211,-0.58807 -3.20599,-2.128611 -4.034173,-3.735353 -0.773654,-1.500954 -0.823718,-4.663645 -0.0967,-6.10864 2.028166,-4.031104 6.756816,-5.489178 10.564691,-3.257613 4.61959,2.707258 4.601113,9.770576 -0.03266,12.48615 -1.801914,1.055991 -4.552349,1.320439 -6.401159,0.615456 z M 8.48,59.042496 c -3.4537818,-1.21264 -4.7982886,-5.736394 -2.5723014,-8.654813 2.5781356,-3.380109 8.0579114,-2.797222 9.6558134,1.027098 1.245577,2.981085 0.01214,6.145513 -2.923512,7.500406 -1.522535,0.702695 -2.441142,0.730807 -4.16,0.127309 z m 83.569661,0.02522 c -3.038003,-1.118934 -4.537376,-4.414246 -3.388346,-7.446874 0.720359,-1.901228 3.207047,-3.606777 5.258685,-3.606777 1.486406,0 3.499936,1.072573 4.517149,2.406205 0.803507,1.053452 0.922851,1.485353 0.922851,3.33974 0,1.83994 -0.122026,2.289802 -0.896541,3.305245 -1.558601,2.043434 -4.126121,2.84504 -6.413798,2.002461 z M 15.159057,42.172243 c -1.854335,-0.597315 -4.050682,-2.559037 -5.04763,-4.508409 -3.2532104,-6.361148 1.140398,-13.488271 8.310589,-13.481082 4.952804,0.005 8.669111,3.501291 9.026187,8.491891 0.194747,2.721847 -0.498183,4.872167 -2.189037,6.793075 -1.87672,2.132068 -4.041562,3.100144 -6.841996,3.059613 -1.241444,-0.01798 -2.707595,-0.177757 -3.258113,-0.355088 z M 82.568694,42.004301 C 80.512246,41.27849 78.007606,38.670621 77.28895,36.50695 76.569693,34.341466 76.744499,31.106132 77.67943,29.28 c 1.655552,-3.233673 4.662608,-5.093716 8.24057,-5.097283 7.194355,-0.0072 11.537414,7.128514 8.250477,13.555609 -1.005322,1.965748 -3.222698,3.868314 -5.198199,4.460189 -1.671641,0.500835 -4.694012,0.409171 -6.403584,-0.194214 z M 38.363222,40.198522 c -2.599212,-0.928858 -4.135203,-2.67617 -4.745184,-5.398036 -1.52528,-6.806094 6.728592,-11.676821 11.894628,-7.019191 1.685564,1.519684 2.47328,3.270964 2.47328,5.498705 0,2.263926 -0.81561,4.044659 -2.521207,5.504586 -2.008201,1.718947 -4.731001,2.261065 -7.101517,1.413936 z m 23.02505,0.08075 c -1.580515,-0.444426 -3.743728,-2.35409 -4.46471,-3.941415 -0.763008,-1.679843 -0.765962,-4.430414 -0.0066,-6.097859 0.779126,-1.710732 2.889737,-3.560067 4.584854,-4.017287 5.322819,-1.435714 10.353171,3.169683 9.226,8.446605 -0.463638,2.170544 -1.594845,3.828541 -3.289834,4.821869 -1.587516,0.930349 -4.291257,1.282557 -6.04976,0.788087 z M 48.889789,22.760989 C 46.70648,21.876649 45.061382,20.449058 43.983667,18.503536 43.1464,16.992079 43.04,16.493312 43.04,14.08 c 0,-2.414339 0.106224,-2.911765 0.945264,-4.4264701 1.033878,-1.8664461 2.117766,-2.9103865 4.137466,-3.9849859 1.888115,-1.0045875 6.186425,-1.0045875 8.07454,0 2.0197,1.0745994 3.103588,2.1185398 4.137466,3.9849859 C 61.173776,11.168235 61.28,11.665661 61.28,14.08 c 0,2.413312 -0.1064,2.912079 -0.943667,4.423536 -1.62904,2.940789 -4.18289,4.519194 -7.653613,4.730308 -1.75017,0.106457 -2.635046,-0.0039 -3.792931,-0.472855 z M 29.389644,20.818086 C 24.699576,19.34613 23.598338,13.27725 27.54713,10.664063 c 5.262377,-3.4824764 11.308876,2.640121 7.827414,7.925925 -1.161232,1.763064 -4.045399,2.836801 -5.9849,2.228098 z M 71.593651,20.61632 c -2.875008,-0.90297 -4.425769,-4.364073 -3.289008,-7.340645 2.222557,-5.8196836 10.837962,-4.1598251 10.854586,2.091263 0.01027,3.858668 -3.730192,6.453984 -7.565578,5.249382 z"
         id="path1370" />
    </g>
  </g>
</svg>
